…
## Making Groups

`group_by(...)` specifies the columns containing the categorical
variables on which you want to split your data set. It is *not*
necessary (although sometimes useful) to convert the column into a
`factor`.

Grouping does not change how the data looks like, apart from listing how
it’s grouped.

``` r
plate_data %>% group_by(sample_id)
```

    ## # A tibble: 100 x 4
    ## # Groups:   sample_id [5]
    ##    sample_id replicate_id concentration intensity
    ##    <chr>     <chr>                <dbl>     <dbl>
    ##  1 control   replicate_4              0     0.290
    ##  2 control   replicate_4              1    NA    
    ##  3 control   replicate_4             10    NA    
    ##  4 control   replicate_4            100    -0.456
    ##  5 control   replicate_4           1000    NA    
    ##  6 control   replicate_3              0    -0.152
    ##  7 control   replicate_3              1    NA    
    ##  8 control   replicate_3             10    NA    
    ##  9 control   replicate_3            100    -0.426
    ## 10 control   replicate_3           1000    NA    
    ## # … with 90 more rows
…
Given `plate_data`, let’s calculate the average intensity for each
`sample_id` and `concentration`.

``` r
plate_data %>% 
  group_by(sample_id, concentration) %>% 
  # calculate mean and sd
  summarize(mean = mean(intensity, na.rm = TRUE), 
            sd = sd(intensity, na.rm = TRUE), 
            # count the rows that are not NA
            N  = sum(!is.na(intensity)))
```

    ## # A tibble: 25 x 5
    ## # Groups:   sample_id [5]
    ##    sample_id   concentration    mean     sd     N
    ##    <chr>               <dbl>   <dbl>  <dbl> <int>
    ##  1 control                 0 -0.0568 0.293      4
    ##  2 control                 1  0.120  0.402      2
    ##  3 control                10 -0.328  0.0686     2
    ##  4 control               100 -0.0758 0.425      4
    ##  5 control              1000 -0.253  1.04       2
    ##  6 treatment_A             0  0.152  0.700      4
    ##  7 treatment_A             1  0.761  1.02       2
    ##  8 treatment_A            10  2.13   0.528      2
    ##  9 treatment_A           100  3.26   1.13       4
    ## 10 treatment_A          1000  6.26   0.374      2
    ## # … with 15 more rows
…
### Student’s *t* Test

In this section, we will use a built-in data set in R, `reshape2::tips`,
which contains a record on the tips a waiter received over several
months in a restaurant.

``` r
reshape2::tips %>% as_tibble()
```

    ## # A tibble: 244 x 7
    ##    total_bill   tip sex    smoker day   time    size
    ##         <dbl> <dbl> <fct>  <fct>  <fct> <fct>  <int>
    ##  1      17.0   1.01 Female No     Sun   Dinner     2
    ##  2      10.3   1.66 Male   No     Sun   Dinner     3
    ##  3      21.0   3.5  Male   No     Sun   Dinner     3
    ##  4      23.7   3.31 Male   No     Sun   Dinner     2
    ##  5      24.6   3.61 Female No     Sun   Dinner     4
    ##  6      25.3   4.71 Male   No     Sun   Dinner     4
    ##  7       8.77  2    Male   No     Sun   Dinner     2
    ##  8      26.9   3.12 Male   No     Sun   Dinner     4
    ##  9      15.0   1.96 Male   No     Sun   Dinner     2
    ## 10      14.8   3.23 Male   No     Sun   Dinner     2
    ## # … with 234 more rows
…
