…
``` r
# ... especially useful when you want to create a new variable based on a
# complex combination of existing variables
dplyr::starwars %>%
  select(name:mass, gender, species) %>%
  mutate(type = case_when(
    height > 200 | mass > 200 ~ "large",
    species == "Droid"        ~ "robot",
    TRUE                      ~ "other"
  )) -> my_starwars_data; my_starwars_data
```

    ## # A tibble: 87 x 6
    ##    name               height  mass gender species type 
    ##    <chr>               <int> <dbl> <chr>  <chr>   <chr>
    ##  1 Luke Skywalker        172    77 male   Human   other
    ##  2 C-3PO                 167    75 <NA>   Droid   robot
    ##  3 R2-D2                  96    32 <NA>   Droid   robot
    ##  4 Darth Vader           202   136 male   Human   large
    ##  5 Leia Organa           150    49 female Human   other
    ##  6 Owen Lars             178   120 male   Human   other
    ##  7 Beru Whitesun lars    165    75 female Human   other
    ##  8 R5-D4                  97    32 <NA>   Droid   robot
    ##  9 Biggs Darklighter     183    84 male   Human   other
    ## 10 Obi-Wan Kenobi        182    77 male   Human   other
    ## # … with 77 more rows
…
